…
    ## The following objects are masked from 'package:stats':
    ## 
    ##     filter, lag

    ## The following objects are masked from 'package:base':
    ## 
    ##     intersect, setdiff, setequal, union

    df2 %>%
      group_by(ID) %>%
      summarise(avg = mean(pain_scores))

    ## # A tibble: 40 × 2
    ##       ID      avg
    ##    <int>    <dbl>
    ## 1      1 24.33333
    ## 2      2 26.00000
    ## 3      3 24.66667
    ## 4      4 23.66667
    ## 5      5 25.00000
    ## 6      6 23.66667
    ## 7      7 26.66667
    ## 8      8 23.33333
    ## 9      9 22.66667
    ## 10    10 24.00000
    ## # ... with 30 more rows
…
